{
  "name": "zesilo-9wnpo",
  "arn": "arn:aws:iam::147625039971:role/zesilo-9wnpo",
  "service": [
    "edgelambda.amazonaws.com",
    "lambda.amazonaws.com"
  ],
  "policy": {
    "Version": "2012-10-17",
    "Statement": [
      {
        "Effect": "Allow",
        "Resource": "*",
        "Action": [
          "logs:CreateLogGroup",
          "logs:CreateLogStream",
          "logs:PutLogEvents"
        ]
      },
      {
        "Effect": "Allow",
        "Resource": "arn:aws:s3:::zesilo-pcfq47a/*",
        "Action": [
          "s3:GetObject",
          "s3:PutObject"
        ]
      }
    ]
  },
  "region": "us-east-1"
}