{
  "id": "E3FAW8AN6VQG31",
  "arn": "arn:aws:cloudfront::147625039971:distribution/E3FAW8AN6VQG31",
  "url": "https://duc06m3ucduzo.cloudfront.net",
  "region": "us-east-1",
  "enabled": true,
  "comment": "",
  "priceClass": "PriceClass_All",
  "origins": [
    {
      "url": "http://zesilo-pcfq47a.s3.us-east-1.amazonaws.com",
      "private": true,
      "pathPatterns": {
        "_next/static/*": {
          "minTTL": 0,
          "defaultTTL": 86400,
          "maxTTL": 31536000,
          "forward": {
            "headers": "none",
            "cookies": "none",
            "queryString": false
          }
        },
        "static/*": {
          "minTTL": 0,
          "defaultTTL": 86400,
          "maxTTL": 31536000,
          "forward": {
            "headers": "none",
            "cookies": "none",
            "queryString": false
          }
        },
        "api/*": {
          "minTTL": 0,
          "defaultTTL": 0,
          "maxTTL": 31536000,
          "allowedHttpMethods": [
            "HEAD",
            "DELETE",
            "POST",
            "GET",
            "OPTIONS",
            "PUT",
            "PATCH"
          ],
          "lambda@edge": {
            "origin-request": "arn:aws:lambda:us-east-1:147625039971:function:zesilo-ac4wsrk:2"
          }
        },
        "_next/image*": {
          "minTTL": 0,
          "defaultTTL": 60,
          "maxTTL": 31536000,
          "allowedHttpMethods": [
            "HEAD",
            "DELETE",
            "POST",
            "GET",
            "OPTIONS",
            "PUT",
            "PATCH"
          ],
          "forward": {
            "headers": [
              "Accept"
            ]
          },
          "lambda@edge": {
            "origin-request": "arn:aws:lambda:us-east-1:147625039971:function:zesilo-844b0tl:1"
          }
        },
        "_next/data/*": {
          "minTTL": 0,
          "defaultTTL": 0,
          "maxTTL": 31536000,
          "allowedHttpMethods": [
            "HEAD",
            "GET"
          ],
          "lambda@edge": {
            "origin-response": "arn:aws:lambda:us-east-1:147625039971:function:zesilo-oupgqd:2",
            "origin-request": "arn:aws:lambda:us-east-1:147625039971:function:zesilo-oupgqd:2"
          }
        }
      }
    }
  ],
  "errorPages": [],
  "defaults": {
    "minTTL": 0,
    "defaultTTL": 0,
    "maxTTL": 31536000,
    "forward": {
      "cookies": "all",
      "queryString": true
    },
    "allowedHttpMethods": [
      "HEAD",
      "DELETE",
      "POST",
      "GET",
      "OPTIONS",
      "PUT",
      "PATCH"
    ],
    "lambda@edge": {
      "origin-request": "arn:aws:lambda:us-east-1:147625039971:function:zesilo-oupgqd:2",
      "origin-response": "arn:aws:lambda:us-east-1:147625039971:function:zesilo-oupgqd:2"
    },
    "compress": true
  }
}